<?xml version="1.0" encoding="utf-8"?>
<!-- Generator: Adobe Illustrator 19.2.1, SVG Export Plug-In . SVG Version: 6.00 Build 0)  -->
<svg version="1.1" xmlns="http://www.w3.org/2000/svg" xmlns:xlink="http://www.w3.org/1999/xlink" x="0px" y="0px"
	 viewBox="0 0 59.5 59.5" style="enable-background:new 0 0 59.5 59.5;" xml:space="preserve">
<style type="text/css">
	.st{fill-rule:evenodd;clip-rule:evenodd;fill:#4f8488;}
</style>
<g id="user-photo_1_">
	<g id="user-photo">
		<path class="st" d="M59.5,29.7C59.5,13.4,46.1,0,29.7,0S0,13.4,0,29.7c0,9,4.1,17.1,10.5,22.6c0.1,0.1,0.2,0.2,0.3,0.2
			c5.1,4.3,11.7,6.9,19,6.9c7.1,0,13.7-2.6,18.9-6.8c0.3-0.1,0.5-0.3,0.7-0.5C55.5,46.6,59.5,38.7,59.5,29.7z M2.7,29.7
			c0-14.9,12.1-27,27-27s27,12.1,27,27c0,7.3-2.9,13.9-7.6,18.7c-0.8-3.6-3-9.6-10-13.6c1.6-2,2.5-4.5,2.5-7.3
			c0-6.5-5.3-11.8-11.8-11.8S18,21.1,18,27.7c0,2.7,1,5.2,2.5,7.3c-7,3.9-9.3,10-10,13.6C5.7,43.7,2.7,37,2.7,29.7z M20.6,27.7
			c0-5,4.1-9.1,9.1-9.1c5,0,9.1,4.1,9.1,9.1s-4.1,9.1-9.1,9.1C24.7,36.8,20.6,32.7,20.6,27.7z M12.9,50.8c0.2-2.2,1.3-9.6,9.6-13.8
			c2.1,1.6,4.5,2.5,7.3,2.5s5.3-1,7.4-2.6c8.1,4.2,9.4,11.4,9.6,13.8c-4.6,3.7-10.5,6-16.9,6C23.4,56.7,17.5,54.5,12.9,50.8z"/>
	</g>
</g>
</svg>
