<?xml version="1.0" encoding="utf-8"?>
<!-- Generator: Adobe Illustrator 19.2.1, SVG Export Plug-In . SVG Version: 6.00 Build 0)  -->
<svg version="1.1" xmlns="http://www.w3.org/2000/svg" xmlns:xlink="http://www.w3.org/1999/xlink" x="0px" y="0px"
	 viewBox="0 0 60 60" style="enable-background:new 0 0 60 60;" xml:space="preserve">
<style type="text/css">
	.st0{fill:#343434;}
	.st1{fill:#2A2A2A;}
	.st2{fill:#353535;}
	.st3{fill:#333433;}
	.st4{fill-rule:evenodd;clip-rule:evenodd;fill:#343434;}
	.st5{fill:url(#SVGID_1_);}
	.st6{fill:url(#SVGID_2_);}
	.st7{fill:url(#SVGID_3_);}
	.st8{fill:url(#SVGID_4_);}
	.st9{fill:url(#SVGID_5_);}
	.st10{fill:url(#SVGID_6_);}
	.st11{fill:#9EC77A;}
	.st12{fill:url(#SVGID_7_);}
	.st13{fill:url(#SVGID_8_);}
	.st14{fill:url(#SVGID_9_);}
	.st15{fill:url(#SVGID_10_);}
	.st16{fill:url(#SVGID_11_);}
	.st17{fill:url(#SVGID_12_);}
	.st18{fill:url(#SVGID_13_);}
	.st19{fill:url(#SVGID_14_);}
	.st20{fill:url(#SVGID_15_);}
	.st21{fill:url(#SVGID_16_);}
	.st22{fill:#DA9A68;}
	.st23{fill:url(#SVGID_17_);}
	.st24{fill:url(#SVGID_18_);}
</style>
<g id="dash_1_">
</g>
<g id="url_1_">
</g>
<g id="tag_1_">
</g>
<g id="integration_1_">
</g>
<g id="instalation_1_">
</g>
<g id="control-panel_1_">
</g>
<g id="user-photo_1_">
</g>
<g id="search_1_">
	<g id="search">
		<g>
			<path class="st3" d="M45,22.5C45,10.1,34.9,0.1,22.5,0.1C10.1,0.1,0.1,10.1,0.1,22.5C0.1,34.9,10.1,45,22.5,45
				C34.9,45,45,34.9,45,22.5L45,22.5z M22.5,39.4c-9.3,0-16.8-7.6-16.8-16.8c0-9.3,7.6-16.8,16.8-16.8c9.3,0,16.8,7.6,16.8,16.8
				C39.4,31.8,31.8,39.4,22.5,39.4L22.5,39.4z M22.5,39.4"/>
			<path class="st3" d="M58.3,50.4L44.6,36.6c-2,3.2-4.8,5.9-7.9,7.9l13.7,13.7c2.2,2.2,5.8,2.2,7.9,0
				C60.5,56.1,60.5,52.6,58.3,50.4L58.3,50.4z M58.3,50.4"/>
		</g>
	</g>
</g>
<g id="new_1_">
</g>
<g id="edit_1_">
</g>
<g id="delete_1_">
</g>
<g id="mk-check_1_">
</g>
<g id="crm_1_">
</g>
<g id="Слой_2">
</g>
</svg>
