<?xml version="1.0" encoding="utf-8"?>
<!-- Generator: Adobe Illustrator 19.2.1, SVG Export Plug-In . SVG Version: 6.00 Build 0)  -->
<svg version="1.1" xmlns="http://www.w3.org/2000/svg" xmlns:xlink="http://www.w3.org/1999/xlink" x="0px" y="0px"
	 viewBox="0 0 60.1 59.9" style="enable-background:new 0 0 60.1 59.9;" xml:space="preserve">
<style type="text/css">
	.st0{fill:#343434;}
	.st1{fill:#2A2A2A;}
	.st2{fill:#353535;}
	.st3{fill:#333433;}
	.st4{fill-rule:evenodd;clip-rule:evenodd;fill:#343434;}
	.st5{fill:url(#SVGID_1_);}
	.st6{fill:url(#SVGID_2_);}
	.st7{fill:url(#SVGID_3_);}
	.st8{fill:url(#SVGID_4_);}
	.st9{fill:url(#SVGID_5_);}
	.st10{fill:url(#SVGID_6_);}
	.st11{fill:#9EC77A;}
	.st12{fill:url(#SVGID_7_);}
	.st13{fill:url(#SVGID_8_);}
	.st14{fill:url(#SVGID_9_);}
	.st15{fill:url(#SVGID_10_);}
	.st16{fill:url(#SVGID_11_);}
	.st17{fill:url(#SVGID_12_);}
	.st18{fill:url(#SVGID_13_);}
	.st19{fill:url(#SVGID_14_);}
	.st20{fill:url(#SVGID_15_);}
	.st21{fill:url(#SVGID_16_);}
	.st22{fill:#DA9A68;}
	.st23{fill:url(#SVGID_17_);}
	.st24{fill:url(#SVGID_18_);}
</style>
<g id="dash_1_">
</g>
<g id="url_1_">
</g>
<g id="tag_1_">
</g>
<g id="integration_1_">
</g>
<g id="instalation_1_">
	<g id="instalation">
		<path class="st2" d="M53,25.8V20l-6.8-1.1c-0.4-1.6-1-3.1-1.9-4.5l4-5.7l-4.1-4l-5.6,4c-1.4-0.8-2.9-1.5-4.6-1.9L32.9,0h-5.7
			L26,6.8c-1.6,0.4-3.2,1-4.6,1.9l-5.6-4l-4,4l3.9,5.6c-0.9,1.4-1.5,2.9-1.9,4.6L7.1,20v5.7l6.7,1.2c0.4,1.6,1.1,3.2,1.9,4.6l-4,5.6
			l4.1,4.1l5.6-3.9c1.4,0.8,2.9,1.5,4.6,1.9l1.1,6.8h5.7l1.2-6.8c1.6-0.4,3.2-1.1,4.5-1.9l5.7,4l4.1-4.1l-4-5.6
			c0.8-1.4,1.5-2.9,1.9-4.5L53,25.8z M30,31c-4.4,0-8-3.6-8-8c0-4.4,3.6-8,8-8c4.4,0,8,3.6,8,8C38,27.4,34.5,31,30,31L30,31z M30,31
			"/>
		<path class="st2" d="M55.5,43.7V53c0,1.3-1,2.3-2.3,2.3H6.9c-1.3,0-2.3-1-2.3-2.3v-9.2H0V53c0,3.8,3.1,6.9,6.9,6.9h46.2
			c3.8,0,6.9-3.1,6.9-6.9v-9.2H55.5z M55.5,43.7"/>
	</g>
</g>
<g id="control-panel_1_">
</g>
<g id="user-photo_1_">
</g>
<g id="search_1_">
</g>
<g id="new_1_">
</g>
<g id="edit_1_">
</g>
<g id="delete_1_">
</g>
<g id="mk-check_1_">
</g>
<g id="crm_1_">
</g>
<g id="Слой_2">
</g>
</svg>
